amqp==5.0.2
asgiref==3.3.1
asn1crypto==0.24.0
billiard==3.6.3.0
celery==5.0.2
certifi==2018.1.18
cffi==1.14.5
chardet==3.0.4
click==7.1.2
click-didyoumean==0.0.3
click-repl==0.1.6
cryptography==2.3
cycler==0.10.0
dataclasses==0.6
decorator==4.4.2
Django==3.1.3
django-jquery==3.1.0
funcsigs==1.0.2
future==0.18.2
h5py==2.9.0
idna==2.6
imageio==2.9.0
importlib-metadata==2.0.0
iniconfig==1.1.1
intel-openmp==2021.1.2
kiwisolver==1.3.1
kombu==5.0.2
ldap3==2.8
matplotlib==3.3.4
mkl==2021.1.1
networkx==2.5
numpy==1.19.5
opencv-python==4.5.1.48
Pillow==8.0.1
prompt-toolkit==3.0.8
pyasn1==0.4.8
pycparser==2.18
pyparsing==2.2.0
python-dateutil==2.6.0
pytz==2018.4
PyWavelets==1.1.1
scikit-image==0.17.2
scipy==1.5.4
six==1.11.0
sqlparse==0.4.1
tbb==2021.1.1
tifffile==2020.9.3
torch==1.7.0
torchfile==0.1.0
torchvision==0.8.1
typing-extensions==3.7.4.3
vine==5.0.0
wcwidth==0.2.5
zipp==3.4.0
